<svg xmlns="http://www.w3.org/2000/svg" xmlns:xlink="http://www.w3.org/1999/xlink" width="289.75" height="272.1" viewBox="0 0 289.75 272.1">
  <defs>
    <style>
      .a21b9e23-400c-4dfa-93e2-466f61d16165 {
        fill: url(#a5fcd6d0-adea-4dec-a46c-ef36bd0833de);
      }
    </style>
    <linearGradient id="a5fcd6d0-adea-4dec-a46c-ef36bd0833de" x1="263.24" y1="217.78" x2="54.31" y2="8.85" gradientUnits="userSpaceOnUse">
      <stop offset="0" stop-color="#781e07"/>
      <stop offset="1" stop-color="#d94c23"/>
    </linearGradient>
  </defs>
  <g id="a2f81bce-e8cd-467b-ab0d-d1ca601d1942" data-name="Layer 2">
    <g id="fc9567d6-5998-4730-9ecb-0257f2200b28" data-name="Layer 1">
      <g id="fe238297-4a1f-46cd-868c-668453f908ed" data-name="Beans">
        <path class="a21b9e23-400c-4dfa-93e2-466f61d16165" d="M174.82,174c22.51,15.41,38.17,42.14,46.54,79.45l.42,1.87a6,6,0,0,1-2.82,6.49c-42,23.86-110.19,5.54-162.18-46.45-47.22-47.23-66.67-107.83-52-150a6,6,0,0,1,11.29,0c11.2,32.28,28.4,56.42,51.35,71.93,20.76,14.05,40.9,17.36,58.67,20.28C142.86,160.31,158.67,162.9,174.82,174ZM36,27.45A6,6,0,0,0,33.2,34l.4,1.72c8.85,38.17,24.95,65.38,47.86,80.87,16.23,11,32,13.56,48.72,16.31,18.69,3.06,38,6.24,58.76,20.44,22.44,15.36,39.19,38.95,50,70.31a6,6,0,0,0,11.3.06c14.58-42.17-4.88-102.65-52-149.8C146.2,21.89,78,3.58,36,27.45Zm244.7,4.06A5.22,5.22,0,0,0,275,29.05l-1.51.35C252,34.38,234.54,42,221.17,52.08A6,6,0,0,0,220.5,61a232.34,232.34,0,0,1,43.7,64.32,6,6,0,0,0,10.8.25C292.11,91.33,294.77,56.22,280.71,31.51ZM247.57,4.22c-21.33-7.45-48.06-4.9-74.8,6.56a6,6,0,0,0-.8,10.59A239,239,0,0,1,195.9,38.29a6,6,0,0,0,7.62-.12q17.85-15,44-24.07A5.24,5.24,0,0,0,247.57,4.22Z"/>
      </g>
    </g>
  </g>
</svg>
